{
    "annotations": {
      "list": [
        {
          "builtIn": 1,
          "datasource": {
            "type": "grafana",
            "uid": "-- Grafana --"
          },
          "enable": true,
          "hide": true,
          "iconColor": "rgba(0, 211, 255, 1)",
          "name": "Annotations & Alerts",
          "type": "dashboard"
        }
      ]
    },
    "editable": true,
    "fiscalYearStartMonth": 0,
    "graphTooltip": 0,
    "id": 1,
    "links": [],
    "liveNow": false,
    "panels": [
      {
        "datasource": {
          "type": "prometheus",
          "uid": "f61a2090-daff-462d-b37a-b064ae650ca5"
        },
        "fieldConfig": {
          "defaults": {
            "color": {
              "mode": "palette-classic"
            },
            "custom": {
              "axisBorderShow": false,
              "axisCenteredZero": false,
              "axisColorMode": "text",
              "axisLabel": "",
              "axisPlacement": "auto",
              "barAlignment": 0,
              "drawStyle": "line",
              "fillOpacity": 0,
              "gradientMode": "none",
              "hideFrom": {
                "legend": false,
                "tooltip": false,
                "viz": false
              },
              "insertNulls": false,
              "lineInterpolation": "linear",
              "lineWidth": 1,
              "pointSize": 5,
              "scaleDistribution": {
                "type": "linear"
              },
              "showPoints": "auto",
              "spanNulls": false,
              "stacking": {
                "group": "A",
                "mode": "none"
              },
              "thresholdsStyle": {
                "mode": "off"
              }
            },
            "mappings": [],
            "thresholds": {
              "mode": "absolute",
              "steps": [
                {
                  "color": "green",
                  "value": null
                },
                {
                  "color": "red",
                  "value": 80
                }
              ]
            },
            "unitScale": true
          },
          "overrides": []
        },
        "gridPos": {
          "h": 8,
          "w": 12,
          "x": 0,
          "y": 0
        },
        "id": 2,
        "options": {
          "legend": {
            "calcs": [],
            "displayMode": "list",
            "placement": "bottom",
            "showLegend": true
          },
          "tooltip": {
            "mode": "single",
            "sort": "none"
          }
        },
        "targets": [
          {
            "datasource": {
              "type": "prometheus",
              "uid": "f61a2090-daff-462d-b37a-b064ae650ca5"
            },
            "disableTextWrap": false,
            "editorMode": "builder",
            "expr": "average_delay / 1000000",
            "fullMetaSearch": false,
            "includeNullMetadata": true,
            "instant": false,
            "legendFormat": "__auto",
            "range": true,
            "refId": "A",
            "useBackend": false
          }
        ],
        "title": "Delay in ms",
        "type": "timeseries"
      },
      {
        "datasource": {
          "type": "prometheus",
          "uid": "f61a2090-daff-462d-b37a-b064ae650ca5"
        },
        "fieldConfig": {
          "defaults": {
            "color": {
              "mode": "palette-classic"
            },
            "custom": {
              "axisBorderShow": false,
              "axisCenteredZero": false,
              "axisColorMode": "text",
              "axisLabel": "",
              "axisPlacement": "auto",
              "barAlignment": 0,
              "drawStyle": "line",
              "fillOpacity": 0,
              "gradientMode": "none",
              "hideFrom": {
                "legend": false,
                "tooltip": false,
                "viz": false
              },
              "insertNulls": false,
              "lineInterpolation": "linear",
              "lineWidth": 1,
              "pointSize": 5,
              "scaleDistribution": {
                "type": "linear"
              },
              "showPoints": "auto",
              "spanNulls": false,
              "stacking": {
                "group": "A",
                "mode": "none"
              },
              "thresholdsStyle": {
                "mode": "off"
              }
            },
            "mappings": [],
            "thresholds": {
              "mode": "absolute",
              "steps": [
                {
                  "color": "green",
                  "value": null
                },
                {
                  "color": "red",
                  "value": 80
                }
              ]
            },
            "unitScale": true
          },
          "overrides": []
        },
        "gridPos": {
          "h": 8,
          "w": 12,
          "x": 0,
          "y": 8
        },
        "id": 1,
        "options": {
          "legend": {
            "calcs": [],
            "displayMode": "list",
            "placement": "bottom",
            "showLegend": true
          },
          "tooltip": {
            "mode": "single",
            "sort": "none"
          }
        },
        "targets": [
          {
            "datasource": {
              "type": "prometheus",
              "uid": "f61a2090-daff-462d-b37a-b064ae650ca5"
            },
            "expr": "",
            "instant": true,
            "key": "Q-9a67d3b8-9efc-4cae-8a7f-1195239a99a5-0",
            "range": true,
            "refId": "A"
          },
          {
            "datasource": {
              "type": "prometheus",
              "uid": "f61a2090-daff-462d-b37a-b064ae650ca5"
            },
            "disableTextWrap": false,
            "editorMode": "builder",
            "expr": "iperf3_received_bits_per_second / 1000000",
            "fullMetaSearch": false,
            "includeNullMetadata": true,
            "instant": true,
            "key": "Q-2cd9c0ce-815f-4461-8d5e-2c2a59529e3e-1",
            "legendFormat": "__auto",
            "range": true,
            "refId": "B",
            "useBackend": false
          },
          {
            "datasource": {
              "type": "prometheus",
              "uid": "f61a2090-daff-462d-b37a-b064ae650ca5"
            },
            "disableTextWrap": false,
            "editorMode": "builder",
            "expr": "total_length_mbits",
            "fullMetaSearch": false,
            "includeNullMetadata": true,
            "instant": true,
            "key": "Q-0d09a8eb-f16d-4305-9a32-c896038c412c-2",
            "legendFormat": "__auto",
            "range": true,
            "refId": "C",
            "useBackend": false
          }
        ],
        "title": "Iperf and eBPF_Bitrate",
        "transformations": [],
        "type": "timeseries"
      }
    ],
    "refresh": "",
    "schemaVersion": 39,
    "tags": [],
    "templating": {
      "list": []
    },
    "time": {
      "from": "now-5m",
      "to": "now"
    },
    "timepicker": {},
    "timezone": "",
    "title": "EnsaT",
    "uid": "e52816ab-9a49-438d-98e4-02d972f465cf",
    "version": 4,
    "weekStart": ""
  }